<?xml version="1.0" encoding="utf-8"?>
<!-- Generator: Adobe Illustrator 24.3.0, SVG Export Plug-In . SVG Version: 6.00 Build 0)  -->
<svg version="1.1" id="Calque_1" xmlns="http://www.w3.org/2000/svg" xmlns:xlink="http://www.w3.org/1999/xlink" x="0px" y="0px"
	 viewBox="0 0 519 436" style="enable-background:new 0 0 519 436;" xml:space="preserve">
<path class="st0" fill="#FFFFFF" d="M80,232.7c0,0,0.2,0.7,0.4,2.1c0.3,1.3,0.7,3.3,1.1,5.8c0.5,2.5,1,5.6,1.5,9.1c0.5,3.5,1.1,7.5,1.5,11.8
	c0.2,2.2,0.5,4.4,0.7,6.8c0.2,2.3,0.3,4.8,0.5,7.3c0.2,2.5,0.3,5.1,0.4,7.7c0.1,2.6,0.2,5.3,0.2,8.1c0,5.5,0,11.2-0.4,16.9
	c-0.1,1.4-0.2,2.9-0.2,4.3c-0.1,1.5-0.3,2.9-0.4,4.4c-0.1,1.5-0.3,2.9-0.4,4.4l-0.1,1.1l0,0.1c0,0.2,0.1-0.4-0.1,0.5l0,0.1l0,0.3
	l-0.1,0.5l-0.2,1.1c0,0.1-0.1,0.5-0.2,0.7l-0.3,0.8c-0.2,0.6-0.4,1.1-0.6,1.6c-0.2,0.5-0.4,0.9-0.7,1.4l-0.7,1.3
	c-0.3,0.4-0.5,0.8-0.8,1.2l-0.8,1.2l-0.9,1.1l-0.9,1.1l-1,1c-2.7,2.5-5.6,4.3-8.4,5.8c-2.8,1.5-5.6,2.6-8.3,3.7
	c-2.7,1-5.3,2-7.9,2.8c-5.2,1.7-12,4.3-16.6,5.9c-4.5,1.6-9.7,3.3-13.5,5c-3.8,1.7-7.1,3.6-10,5.4c-2.9,1.8-5.3,3.7-7.2,5.2
	c-1.9,1.6-3.4,2.9-4.4,3.9c-1,0.9-1.5,1.5-1.5,1.5s0.3-0.7,0.9-1.9c0.6-1.2,1.6-3,3-5.2c1.5-2.1,3.4-4.7,6-7.3
	c2.5-2.6,5.7-5.4,9.4-8c3.7-2.6,8.9-5.1,13.4-7.5c4.5-2.3,11.4-5.5,16.4-7.6c2.4-1.1,5-2.1,7.4-3.3c1.2-0.6,2.4-1.1,3.6-1.7l1.7-0.9
	l1.7-0.9c2.2-1.2,4.1-2.6,5.6-4.1l0.6-0.5l0.5-0.6l0.5-0.5l0.4-0.6c0.1-0.2,0.3-0.4,0.4-0.6l0.3-0.6c0.1-0.2,0.2-0.4,0.3-0.6
	c0-0.1,0.1-0.3,0.1-0.4l0.1-0.2c0-0.1,0.1-0.1,0.1-0.3l0.2-1.1l0.1-0.5l0.1-0.3l0-0.1c-0.1,0.8,0,0.2-0.1,0.3l0-0.1l0.1-1
	c0.2-1.4,0.3-2.8,0.5-4.2c0.2-1.4,0.3-2.8,0.5-4.2c0.1-1.4,0.3-2.8,0.4-4.2c0.1-1.4,0.3-2.8,0.4-4.1c0.2-1.4,0.3-2.7,0.4-4.1
	c0.2-2.7,0.4-5.4,0.7-8.1c0.8-10.7,1.5-20.7,2.1-29.3c0.4-4.3,0.7-8.3,1-11.8c0.3-3.5,0.6-6.6,0.9-9.1c0.3-2.5,0.5-4.5,0.7-5.9
	C79.9,233.4,80,232.7,80,232.7z"/>
<path class="st0" fill="#FFFFFF" d="M134.6,32c0,0-1.6-1.2-4.8-3.2c-3.2-2-8-4.7-14.3-7.5c-3.2-1.4-6.7-2.7-10.6-3.7c-3.9-1-8.1-1.9-12.6-2.1
	c-4.4-0.2-9,0.1-13.4,1.5c-2.2,0.7-4.4,1.3-6.7,2c-0.6,0.2-1.1,0.4-1.7,0.6c-0.6,0.2-1.1,0.5-1.7,0.8c-0.5,0.3-1.1,0.6-1.7,0.9
	c-0.5,0.3-1.1,0.7-1.6,1c-4.3,2.8-8.3,6.7-12,11.3l-0.4,0.5l-0.3,0.4l-0.6,0.8c-0.4,0.5-0.8,1.2-1.2,1.8c-0.4,0.6-0.8,1.2-1.2,1.9
	c-0.4,0.7-0.8,1.3-1.1,2c-1.5,2.7-2.8,5.5-4.1,8.5c-5,12-8.2,25.8-9.9,40.3c-1.7,14.5-2,29.7-0.4,44.9c1.6,15.2,4.9,30.5,10.9,44.4
	c3.1,6.9,6.7,13.4,11.3,19c4.6,5.6,10,10.3,16,13.5c6.1,3.2,12.8,4.9,19.6,5.3c1.7,0.1,3.9,0.2,5.6,0.2l2.7,0l2.7-0.1
	c3.6-0.1,7-0.5,10.3-1.1c3.2-0.6,6.2-1.5,8.7-2.8c2.5-1.3,4.3-2.9,5.7-4.8c2.7-3.9,3.4-9.9,3-16.1c-0.4-6.3-1.5-12.7-2.8-18.9
	c-1.3-6.3-2.6-12.4-3.9-18.4c-0.6-3-1.2-6-1.8-8.8c-0.3-1.4-0.6-2.9-0.9-4.3c-0.2-1.4-0.3-2.9-0.4-4.3c-0.3-5.7-0.4-11.2-0.2-16.3
	c0.3-10.3,2-19.1,4.1-26.1c0.5-1.8,1.1-3.4,1.6-4.9c0.6-1.5,1.1-2.9,1.7-4.2c0.6-1.3,1.1-2.5,1.7-3.5c0.5-1.1,1-2,1.5-2.8
	c0.9-1.7,1.7-2.9,2.3-3.7c0.5-0.8,0.8-1.3,0.8-1.3s-0.2,0.5-0.5,1.4c-0.2,0.5-0.3,1-0.6,1.7c-0.2,0.7-0.4,1.5-0.7,2.4
	c-1,3.6-2.2,9-2.7,15.9c-0.5,6.9-0.1,15.2,1.4,24.5c0.8,4.7,1.8,9.6,3.2,14.8c0.7,2.6,1.2,5.3,1.6,8.1c0.4,2.8,1,5.6,1.6,8.6
	c1.2,5.9,2.6,12,3.9,18.5c1.3,6.5,2.6,13.4,3,21c0.2,3.8,0.2,7.8-0.5,12c-0.7,4.2-2.2,8.8-4.9,12.9c-1.4,2-3.1,3.9-4.9,5.5
	c-1.9,1.6-3.9,2.9-5.9,4c-4.1,2.1-8.4,3.4-12.6,4.2c-4.2,0.8-8.3,1.1-12.4,1.3l-3.1,0.1l-3.1,0c-2.2,0-3.8-0.1-6-0.2
	c-8.7-0.5-17.6-2.7-25.5-7c-8-4.2-14.8-10.3-20.4-17.1c-5.6-6.8-9.9-14.5-13.3-22.3c-6.8-15.7-10.3-32.3-12-48.6
	c-1.6-16.3-1.4-32.5,0.4-48c1.9-15.5,5.3-30.4,10.9-44.1c1.4-3.4,3-6.7,4.8-9.9c0.4-0.8,0.9-1.6,1.4-2.4c0.5-0.8,0.9-1.6,1.5-2.3
	c0.5-0.8,1-1.5,1.6-2.3l0.9-1.2l0.4-0.6l0.4-0.5c4.4-5.5,9.5-10.6,15.4-14.4c0.7-0.5,1.4-1,2.2-1.4c0.8-0.4,1.5-0.8,2.3-1.2
	c1.5-0.8,3.1-1.5,4.6-2.2c3.1-1.4,6.3-2.3,9.5-2.6C82.8,2.3,88.8,3.1,94,4.5c10.5,2.8,18.3,7.7,24.2,12c5.9,4.3,9.9,8.3,12.6,11.1
	c1.3,1.4,2.3,2.5,2.9,3.3C134.3,31.6,134.6,32,134.6,32z"/>
<path class="st0" fill="#FFFFFF" d="M200,92.9c0,6.2-5,11.2-11.2,11.2c-6.2,0-11.2-5-11.2-11.2c0-6.2,5-11.2,11.2-11.2C195,81.7,200,86.8,200,92.9z
	"/>
<path class="st0" fill="#FFFFFF" d="M195.7,72.8c0,0-0.7,0-1.9-0.1c-0.6,0-1.3,0-2.1-0.1c-0.8,0-1.7-0.1-2.6-0.1c-0.9,0-1.9,0-2.9,0
	c-1,0-2.1,0.1-3.1,0.2c-1,0.1-2.1,0.3-3,0.5c-1,0.3-1.9,0.5-2.7,1c-0.9,0.4-1.6,0.9-2.3,1.5c-0.7,0.6-1.4,1.3-2,2
	c-0.3,0.4-0.5,0.8-0.9,1.2c-0.3,0.4-0.5,0.8-0.8,1.3c-0.3,0.4-0.4,0.9-0.7,1.3c-0.2,0.4-0.4,0.8-0.6,1.3c-0.2,0.4-0.4,0.8-0.6,1.2
	c-0.2,0.4-0.3,0.8-0.5,1.1c-0.3,0.7-0.6,1.4-0.8,1.9c-0.5,1.1-0.8,1.7-0.8,1.7s-0.3-0.6-0.6-1.8c-0.2-0.6-0.3-1.3-0.4-2.1
	c-0.1-0.4-0.1-0.9-0.2-1.3c0-0.5,0-1,0-1.5c0-1.1,0.1-2.2,0.3-3.4c0.1-0.6,0.3-1.2,0.5-1.9c0.2-0.6,0.5-1.3,0.8-1.9
	c0.3-0.6,0.7-1.3,1.1-1.9c0.2-0.3,0.5-0.6,0.7-0.9c0.2-0.3,0.5-0.6,0.8-0.9c1.1-1.2,2.5-2.1,3.9-2.8c1.5-0.7,3-1.1,4.5-1.3
	c0.7-0.1,1.5-0.2,2.2-0.2c0.7,0,1.4,0,2.1,0.1c1.4,0.2,2.6,0.4,3.8,0.8c1.2,0.4,2.2,0.8,3.1,1.2c1.9,0.9,3.3,1.9,4.2,2.7
	C195.2,72.2,195.7,72.8,195.7,72.8z"/>
<path class="st1" fill="#E3C87B" d="M137.8,326.9c0,5.5-2.2,10-5,10c-2.8,0-5-4.5-5-10c0-5.5,2.2-10,5-10C135.6,316.9,137.8,321.4,137.8,326.9z"/>
<g>
	<path class="st0" fill="#FFFFFF" d="M133.5,372.5c-12,19.1-18.7,25.6-21.7,27.8c-2.1-9.5-0.7-40.5,12-78.6c9.5-28.4,32.2-80.2,78.3-110.6
		c0.6,0.3,1.2,0.6,1.8,0.9c0.7,0.3,1.4,0.6,2,0.8c1.4,0.5,2.8,1.1,4.2,1.5c1.4,0.5,3,0.7,4.5,1c1.5,0.3,3,0.7,4.6,1
		c1.6,0.3,3.1,0.5,4.7,0.8c0.8,0.1,1.6,0.3,2.4,0.4c0.8,0.1,1.6,0.2,2.4,0.3c1.6,0.2,3.3,0.4,5,0.5c1.7,0.1,3.4,0.1,5.1,0.2
		c0.9,0,1.7,0.1,2.6,0.1c0.9,0,1.7,0,2.6-0.1c7,0,14.1-0.8,21.4-2.2c7.3-1.3,14.6-3.4,21.8-6.2c7.2-2.8,14.4-6.2,21.2-10.5
		c6.8-4.3,13.4-9.4,19.3-15.4c5.9-6,11.2-12.8,15.4-20.4c1-2,2-3.9,2.9-5.9l1.2-3l0.6-1.5l0.3-0.8l0.1-0.2c0,0,0.2-0.5,0.1-0.4
		l0.1-0.4l0.9-2.9l0.5-1.4c0.2-0.5,0.3-1,0.4-1.5l0.8-3.4c0.3-1.1,0.5-2.2,0.7-3.4c0.3-2.2,0.7-4.4,0.8-6.7c0-1,0.1-2,0.1-3
		c7.5-4.7,13.2-14.7,13.2-21.7c0-9.5-12.5-14.2-23.7-14.2c-1.9,0-3.6,0-5,0c-0.6-0.5-1.1-1-1.7-1.5c-0.4-0.4-0.8-0.8-1.3-1.1l-1.3-1
		c-7-5.6-14.6-9.7-22.3-13.1c-7.7-3.4-15.5-5.9-23.2-8.2c-7.7-2.2-15.4-4.1-22.9-5.8c-3.7-0.8-7.5-1.7-11.1-2.5
		c-1.8-0.4-3.6-0.8-5.5-1.2l-0.3-0.1l-0.1,0l-0.6-0.2l-1.3-0.4l-1.3-0.4c-0.2-0.1-0.5-0.1-0.6-0.2l-0.5-0.2c-0.7-0.3-1.3-0.5-2-0.8
		c-0.3-0.1-0.7-0.3-1-0.5l-1.1-0.5c-1.4-0.6-2.8-1.5-4.1-2.3c-2.7-1.8-5.2-3.7-7.6-5.9c-4.8-4.3-9.3-9.2-13.6-14.1
		c-4.3-4.9-8.6-9.8-13.1-14.4c-2.2-2.3-4.6-4.4-6.9-6.5c-2.3-2.2-4.8-4.1-7.6-5.5c-5.4-3-11-5-16.5-6c-2.7-0.6-5.3-0.7-7.9-0.9
		c-2.5,0.1-5,0-7.2,0.3c-1.1,0.1-2.3,0.3-3.3,0.4c-1.1,0.2-2.1,0.4-3.1,0.7c-2,0.4-3.9,1-5.7,1.5c-7.1,2.2-12.1,4.9-15.5,6.7
		c-3.3,1.9-5.1,2.9-5.1,2.9s2-0.6,5.6-1.7c0.5-0.1,0.9-0.3,1.4-0.4c0.5-0.1,1.1-0.3,1.6-0.4c1.1-0.3,2.4-0.6,3.7-0.9
		c0.3-0.1,0.7-0.2,1-0.2c0.4-0.1,0.7-0.1,1.1-0.2c0.7-0.1,1.5-0.2,2.2-0.4c0.8-0.1,1.6-0.3,2.4-0.4c0.8-0.1,1.7-0.2,2.5-0.3
		c1.7-0.2,3.5-0.4,5.4-0.3c0.9,0,1.9,0,2.9,0c1,0,2,0.2,3,0.2c2,0.1,4,0.6,6.1,0.9c2.1,0.6,4.2,1,6.2,1.9c4.2,1.6,8.2,4,12.1,7.2
		c1,0.8,2,1.6,3,2.4c1,0.8,2.1,1.5,3.1,2.4c1.1,0.9,2.1,1.7,3.1,2.7c1,1,2.1,1.9,3.1,3c4.1,4.1,8.2,8.8,12.6,13.8
		c4.4,5,9.1,10.2,14.7,15.2c2.8,2.5,5.9,4.9,9.2,7.1c1.7,1,3.4,2.1,5.3,3l1.4,0.7c0.5,0.2,0.9,0.5,1.5,0.7c1,0.4,2.1,0.8,3.2,1.2
		l0.8,0.3c0.2,0.1,0.5,0.1,0.7,0.2l1.3,0.4l1.3,0.4l0.7,0.2l0.5,0.1l0.2,0l0.3,0.1c1.8,0.4,3.6,0.8,5.5,1.2c3.6,0.8,7.3,1.6,11,2.5
		c7.4,1.7,14.8,3.5,22.2,5.6c7.4,2.1,14.7,4.6,21.7,7.6l2.6,1.2l2.6,1.2c1.7,0.8,3.3,1.8,5,2.6c3.2,1.9,6.4,3.9,9.2,6.2l1.1,0.8
		c0.3,0.3,0.7,0.6,1,0.9l2,1.8c1.2,1.3,2.5,2.6,3.5,4c1.1,1.3,2,2.8,2.9,4.3c0.7,1.5,1.6,3,2.1,4.6c2.6,6.3,2.7,13.5,1.6,20.7
		c-0.1,0.9-0.3,1.8-0.5,2.6l-0.6,2.6c-0.1,0.4-0.2,0.9-0.4,1.4l-0.5,1.4l-0.9,2.9l-0.1,0.3c0,0,0,0,0,0l-0.1,0.2l-0.3,0.6l-0.5,1.3
		l-1,2.6c-0.7,1.7-1.6,3.3-2.4,4.9c-7,12.9-18.1,23.4-30.2,31.1c-6.1,3.9-12.5,7-19,9.4c-6.5,2.5-13.1,4.4-19.6,5.5
		c-6.5,1.2-12.9,1.9-19.2,1.9c-0.8,0-1.6,0-2.3,0c-0.8,0-1.5-0.1-2.3-0.1c-1.5-0.1-3-0.1-4.5-0.2c-1.5-0.1-3-0.3-4.4-0.4
		c-0.7-0.1-1.5-0.1-2.2-0.2c-0.7-0.1-1.4-0.2-2.1-0.3c-5.7-0.7-10.9-2.6-16-3.8c-0.6-0.1-1.3-0.3-1.9-0.4c-0.6-0.2-1.2-0.4-1.9-0.5
		c-1.2-0.4-2.5-0.7-3.7-1c-1.2-0.3-2.3-0.8-3.5-1.2c-1.1-0.4-2.3-0.8-3.4-1.2c-8.8-3.5-16.1-7.8-21.9-11.8c-1.4-1-2.8-2-4-2.9
		c-1.3-0.9-2.3-1.9-3.4-2.8c-1.1-0.9-2-1.7-2.9-2.4c-0.9-0.7-1.6-1.5-2.3-2.2c-2.8-2.7-4.3-4.1-4.3-4.1s1.1,1.7,3.2,5
		c0.5,0.8,1.1,1.7,1.8,2.7c0.7,1,1.5,2,2.4,3.1c0.4,0.6,0.9,1.2,1.3,1.8c0.5,0.6,0.9,1.3,1.5,1.8c1.1,1.2,2.3,2.5,3.5,3.8
		c1.2,1.4,2.6,2.7,4.1,4.1c1.5,1.4,3,2.9,4.8,4.3c0.9,0.7,1.8,1.4,2.7,2.2c0.9,0.7,1.8,1.5,2.8,2.2c1.1,0.7,2.2,1.5,3.3,2.3
		c-26.8,19.5-49.5,48.2-66,83.6c-13.4,28.8-22.7,62.8-25.1,91c-2.3,28.1,3.5,33.3,5.4,35.1c2.2,2,4.9,3,7.7,3c0.7,0,1.5-0.1,2.3-0.2
		c5.7-1,14.1-5.7,29.7-36.3l16.4-39.1c0.2-0.9,0.5-1.9,0.9-2.9c0.3-1,0.7-2.1,1.1-3.2c0.4-1.1,0.9-2.1,1.4-3.1c0.5-1,1-2,1.6-2.8
		c0.6,0.1,1.1,0.4,1.6,0.6c0.5,0.3,1,0.4,1.5,0.4c1.8,0,3.5-0.2,5.2-0.7c1.7-0.4,3.3-0.8,5-1.2c1.1-0.2,2.2-0.5,3.2-0.7
		c1-0.2,2-0.5,2.9-0.7c0.9-0.2,1.8-0.4,2.7-0.6c0.9-0.2,1.8-0.3,2.7-0.4c0.6-0.1,1.2-0.1,1.8-0.2c0.6-0.1,1-0.1,1.4-0.2
		c-0.2,0.9-0.4,1.8-0.6,2.7c-0.2,0.9-0.4,1.8-0.6,2.6c-0.2,0.8-0.4,1.6-0.6,2.3c-0.2,0.7-0.3,1.3-0.4,1.8c-0.1,0.4-0.3,1.1-0.6,1.8
		c-0.3,0.8-0.6,1.6-1,2.5c-0.4,0.9-0.8,1.9-1.2,2.9c-0.4,1-0.8,1.9-1.1,2.9s-0.6,1.7-0.8,2.5c-0.2,0.7-0.3,1.3-0.3,1.7
		c0,0.5,0.1,0.9,0.2,1.4c0.2,0.5,0.4,0.9,0.7,1.2c0.3,0.4,0.7,0.6,1.1,0.9c0.4,0.2,1,0.3,1.5,0.3c1,0,1.8-0.2,2.4-0.6
		c0.6-0.4,1.1-0.9,1.5-1.5c0.4-0.6,0.7-1.3,0.9-2c0.2-0.7,0.4-1.5,0.6-2.2l0,0c0.2-0.4,0.4-1,0.7-1.6c0.3-0.7,0.5-1.4,0.8-2.2
		c0.3-0.8,0.6-1.6,0.9-2.4c0.3-0.8,0.6-1.6,0.8-2.3c0.2-0.7,0.4-1.3,0.6-1.8c0.2-0.5,0.3-0.8,0.3-1l1.5-5.6c0.3-1.4,0.7-3,1.1-4.7
		c0.4-1.7,0.8-3.6,1.1-5.4c0.3-1.9,0.6-3.8,0.9-5.8c0.2-2,0.4-3.9,0.4-5.7c0-2.1-0.2-4.1-0.6-6c-0.4-1.9-1-3.5-1.9-4.9
		c-0.9-1.4-2.1-2.5-3.7-3.4c-1.5-0.8-3.4-1.2-5.7-1.2c-2.2,0-4.4,0.5-6.6,1.6c-2.2,1.1-4.4,2.5-6.5,4.3c-2.1,1.8-4.1,3.8-6.1,6
		c-1.9,2.2-3.8,4.5-5.4,6.9c-1.7,2.3-3.2,4.6-4.5,6.8c-1.4,2.2-2.5,4.2-3.4,5.8c-1.1,1.9-2.1,3.8-3.1,5.7c-1,1.9-1.8,3.8-2.5,5.6
		L133.5,372.5z M169,318.6c0.2-0.3,0.3-0.7,0.5-1c0.2-0.3,0.4-0.6,0.5-0.9c0.2-0.3,0.3-0.5,0.4-0.6c0.7-1,1.5-2.1,2.4-3.3
		c0.9-1.2,1.8-2.3,2.8-3.5c1-1.2,2.1-2.3,3.2-3.4c1.1-1.1,2.3-2.1,3.5-2.9c1.2-0.8,2.4-1.5,3.6-2c1.2-0.5,2.5-0.8,3.7-0.8
		c1,0,1.8,0.3,2.4,0.9c0.6,0.6,1,1.3,1.3,2.1c0.3,0.8,0.4,1.7,0.5,2.6c0.1,0.9,0.1,1.7,0.1,2.5c0,0.9,0,1.7-0.1,2.6
		c0,0.8-0.1,1.6-0.2,2.4c-0.1,0.7-0.2,1.4-0.3,2c-0.1,0.6-0.2,1.1-0.3,1.5c-0.8,0.2-2.1,0.4-3.7,0.7c-1.6,0.3-3.4,0.6-5.4,0.9
		c-1.9,0.3-3.9,0.6-5.9,0.8c-2,0.2-3.8,0.3-5.3,0.3h-4.3C168.6,319.2,168.8,318.9,169,318.6z"/>
	<path class="st0" fill="#FFFFFF" d="M262.9,317.3c0.6,0,1.1,0.1,1.4,0.3c0.4,0.2,0.7,0.4,0.9,0.7c0.2,0.3,0.4,0.7,0.4,1.1c0.1,0.4,0.1,0.8,0.1,1.2
		c0,0.9-0.1,2-0.4,3.5c-0.3,1.4-0.7,2.9-1.1,4.5c-0.4,1.6-0.9,3.2-1.4,4.7c-0.5,1.6-0.9,2.9-1.3,4.1c-0.2,0.7-0.6,1.5-1,2.4
		c-0.4,0.9-0.9,1.8-1.3,2.8c-0.5,0.9-0.9,1.8-1.3,2.5c-0.4,0.8-0.6,1.4-0.7,1.8c-0.1,0.3-0.2,0.7-0.2,1c0,0.4,0,0.7,0,1
		c0,1,0.3,1.8,0.9,2.4c0.6,0.6,1.7,0.8,3.4,0.8c0.7,0,1.3-0.2,1.9-0.6c0.5-0.4,1-1,1.4-1.6c0.4-0.6,0.8-1.4,1.1-2.1
		c0.3-0.8,0.6-1.5,0.9-2.2c1.2-2.9,2.2-5.8,3.2-8.7c1-2.9,1.9-5.9,2.7-9.1c0.3-1.3,0.6-2.6,0.8-4c0.2-1.4,0.4-2.8,0.4-4.1
		c0-1.2-0.1-2.4-0.4-3.4c-0.3-1.1-0.8-2-1.5-2.8c-0.7-0.8-1.7-1.5-2.9-1.9c-1.2-0.5-2.7-0.7-4.6-0.7c-1.2,0-2.5,0.2-3.8,0.6
		c-1.3,0.4-2.6,0.9-3.9,1.6c-1.3,0.6-2.6,1.4-3.9,2.2c-1.3,0.8-2.5,1.6-3.7,2.4c-0.1-1.2-0.3-2.1-0.7-2.9c-0.4-0.8-0.9-1.5-1.5-1.9
		c-0.6-0.5-1.3-0.9-2-1.1c-0.7-0.2-1.5-0.4-2.2-0.4c-1.6,0-3.2,0.2-4.7,0.6c-1.5,0.4-3,1-4.5,1.7c-1.5,0.7-2.9,1.5-4.2,2.4
		c-1.4,0.9-2.7,1.9-4,2.9c0.4-1.1,0.8-2.2,1.1-3.1c0.3-1,0.5-1.9,0.5-2.8c0-0.5-0.1-1-0.2-1.4c-0.1-0.4-0.3-0.8-0.7-1.1
		c-0.3-0.3-0.7-0.5-1.2-0.7c-0.5-0.2-1.2-0.3-1.9-0.3c-0.4,0-0.7,0.1-1.1,0.2c-0.4,0.1-0.8,0.3-1.1,0.5s-0.7,0.4-1,0.7
		c-0.3,0.3-0.5,0.6-0.6,0.9c-0.2,1-0.4,1.9-0.4,2.8c0,0.9-0.2,1.8-0.4,2.8c-0.6,2.5-1.3,4.9-2,7.3c-0.7,2.4-1.4,4.9-2.1,7.4
		c-0.7,2.6-1.5,5.2-2.3,8c-0.8,2.8-1.6,5.8-2.4,9c-0.1,0.2-0.1,0.4-0.1,0.5c0,0.2,0,0.3,0,0.5c0,1.1,0.4,1.9,1.2,2.6
		c0.8,0.7,1.9,1,3.1,1c0.9,0,1.5-0.3,2.1-0.9c0.5-0.6,0.9-1.3,1.2-2.1c0.3-0.8,0.5-1.5,0.6-2.3c0.1-0.8,0.2-1.3,0.2-1.6
		c0.1-0.6,0.2-1.3,0.3-2.1c0.1-0.8,0.3-1.8,0.6-2.9c0.1-0.4,0.3-1.1,0.6-2.2c0.3-1.1,0.6-2.3,1-3.5c0.4-1.3,0.7-2.5,1.1-3.6
		c0.4-1.1,0.6-1.9,0.9-2.3c2.1-2.1,3.9-3.9,5.5-5.3c1.6-1.5,3-2.7,4.3-3.7c1.3-1,2.5-1.7,3.6-2.1c1.1-0.5,2.2-0.7,3.4-0.7
		c0.7,0,1.2,0.2,1.5,0.6c0.3,0.4,0.4,1,0.4,1.6c0,0.4,0,0.8-0.1,1.3c-0.1,0.5-0.2,1-0.3,1.6c-0.6,2.2-1.1,4.2-1.7,6.1
		c-0.6,1.8-1.2,3.7-1.8,5.5c-0.6,1.8-1.2,3.7-1.8,5.7c-0.6,2-1.2,4.2-1.9,6.7c0,0.6,0.1,1.1,0.3,1.6c0.2,0.5,0.5,1,0.8,1.5
		c0.3,0.4,0.7,0.8,1.2,1.1c0.5,0.3,1,0.4,1.5,0.4c1.1,0,1.9-0.2,2.5-0.7c0.6-0.5,1-1.1,1.3-1.8c0.3-0.7,0.5-1.5,0.6-2.4
		c0.1-0.8,0.2-1.6,0.3-2.4c0.1-0.7,0.2-1.5,0.4-2.3c0.1-0.8,0.3-1.6,0.5-2.4c0-0.1,0.1-0.4,0.3-1c0.2-0.6,0.4-1.3,0.7-2.2
		c0.3-0.9,0.6-1.8,0.9-2.8c0.3-1,0.6-1.9,1-2.8c0.3-0.9,0.6-1.6,0.8-2.2c0.2-0.6,0.4-1,0.4-1.1c0.5-0.2,1.1-0.5,1.6-1
		c0.5-0.4,1.1-1,1.7-1.6c0.8-0.9,1.8-1.9,3-2.8c1.2-1,2.4-1.8,3.6-2.6c1.2-0.8,2.4-1.4,3.6-1.8C261,317.6,262,317.3,262.9,317.3z"/>
	<path class="st0" fill="#FFFFFF" d="M302.4,347c-0.2,1.1-0.3,2.1-0.3,2.9c0,0.4,0,0.7,0.1,1c0.1,0.3,0.3,0.5,0.5,0.7c0.3,0.2,0.7,0.4,1.2,0.5
		c0.5,0.1,1.2,0.2,2.1,0.2c0.7,0,1.2-0.1,1.6-0.4c0.4-0.2,0.8-0.5,1-0.9c0.3-0.3,0.5-0.7,0.6-1.1c0.1-0.4,0.2-0.7,0.3-0.9
		c0.2-0.9,0.4-1.8,0.5-2.8c0.1-1,0.2-2.1,0.3-3.3l5.5-21.9c0.2-0.7,0.4-1.3,0.7-2c0.2-0.6,0.3-1.3,0.3-2.1c0-0.5-0.1-1-0.2-1.5
		c-0.2-0.5-0.4-0.9-0.7-1.3c-0.3-0.4-0.8-0.7-1.3-0.9c-0.6-0.2-1.2-0.3-2.1-0.3c-0.4,0-0.9,0-1.3,0.1c-0.4,0.1-0.9,0.2-1.6,0.3
		c-0.6-0.1-1.3-0.2-2.1-0.2c-0.8-0.1-1.5-0.1-2.1-0.1c-1.4,0-2.9,0.1-4.4,0.4c-1.5,0.3-2.9,0.9-4.4,2c-3.8,2.6-7,5.8-9.5,9.5
		c-2.6,3.7-4.4,7.8-5.4,12.1c-0.2,1-0.4,1.8-0.6,2.6c-0.1,0.7-0.2,1.5-0.2,2.2c0,1.5,0.3,2.9,1,4.1c0.6,1.2,1.7,2.3,3.2,3.5
		c0.5,0.4,1.2,0.7,1.9,1c0.7,0.2,1.5,0.4,2.4,0.4c1,0,2.1-0.3,3.3-0.8c1.2-0.6,2.4-1.3,3.5-2.1c1.2-0.8,2.3-1.7,3.4-2.6
		c1.1-0.9,2.1-1.7,3-2.4C302.7,344.5,302.6,345.9,302.4,347z M299.3,338.2c-1.2,1.2-2.4,2.3-3.6,3.3c-0.9,0.7-1.8,1.3-2.8,1.8
		c-1,0.5-2.1,0.8-3.3,0.8c-0.7,0-1.2-0.3-1.5-0.9c-0.2-0.6-0.3-1.3-0.3-2c0-0.7,0.1-1.4,0.2-2.2c0.1-0.7,0.2-1.3,0.4-1.7
		c0.4-1.4,0.9-2.8,1.6-4.3c0.7-1.5,1.5-2.9,2.4-4.2c0.9-1.4,2-2.7,3.1-3.9c1.1-1.2,2.4-2.2,3.6-3.1c1.3-0.9,2.6-1.6,4-2.1
		c1.4-0.5,2.7-0.8,4.1-0.8c0.5,0,0.8,0.2,1,0.5c0.2,0.3,0.2,0.7,0.2,1.1c0,0.8-0.1,1.8-0.2,2.8c-0.2,1.1-0.3,2-0.6,2.8
		c-0.4,1.4-1,2.8-1.8,4.2c-0.8,1.4-1.8,2.8-2.9,4.1C301.7,335.8,300.6,337,299.3,338.2z"/>
	<path class="st0" fill="#FFFFFF" d="M340.9,313.4c0.1-0.2,0.1-0.4,0.1-0.5c0-0.9-0.3-1.6-1-2c-0.7-0.5-1.5-0.7-2.6-0.7c-0.8,0-1.6,0.2-2.3,0.5
		c-0.7,0.3-1.1,0.7-1.3,1.2c-0.8,2.1-1.5,4-2.2,5.7c-0.7,1.7-1.3,3.4-1.9,5c-0.6,1.6-1.2,3.2-1.8,4.8c-0.6,1.6-1.2,3.3-1.8,5.1
		c-0.6,1.8-1.2,3.7-1.7,5.8c-0.6,2.1-1.2,4.5-1.8,7.1c-0.1,0.5-0.2,1-0.2,1.4c0,0.4,0,0.8,0,1.2c0,1.4,0.3,2.4,1,2.9
		c0.7,0.5,1.5,0.7,2.6,0.7c0.2,0,0.4,0,0.7-0.1c0.3,0,0.6-0.1,1-0.3c0.3-0.2,0.6-0.4,1-0.7c0.3-0.3,0.5-0.7,0.7-1.3
		c0.2-0.9,0.4-1.7,0.6-2.4c0.2-0.7,0.3-1.4,0.4-2c0.1-0.6,0.2-1.2,0.3-1.8c0.1-0.6,0.2-1.1,0.3-1.7c0.2-1.1,0.6-2.3,0.9-3.6
		c0.4-1.3,0.8-2.5,1.2-3.8c0.4-1.2,0.8-2.4,1.3-3.4c0.4-1,0.8-1.9,1.2-2.5c0.6-0.2,1.1-0.5,1.7-1c0.6-0.4,1.1-0.9,1.7-1.4
		c1.2-1.1,2.4-2.1,3.6-3c1.2-1,2.4-1.9,3.6-2.6c1.2-0.8,2.3-1.4,3.4-1.8c1.1-0.5,2.1-0.7,3.1-0.7c1,0,1.7,0.3,2.1,1
		c0.4,0.7,0.6,1.4,0.6,2.3c0,0.9-0.1,1.9-0.4,3c-0.2,1.1-0.6,2.2-1,3.4c-0.4,1.2-0.9,2.4-1.4,3.7c-0.5,1.3-1,2.5-1.6,3.8
		c-0.7,1.6-1.3,3.1-1.8,4.6c-0.6,1.5-1.1,3-1.5,4.3c-0.4,1.3-0.8,2.6-1,3.7c-0.2,1.1-0.4,2.1-0.4,2.8c0,0.9,0.2,1.5,0.6,1.9
		c0.4,0.4,1.2,0.6,2.2,0.6c0.7,0,1.3-0.1,1.8-0.2c0.5-0.1,0.9-0.4,1.3-0.7c0.4-0.3,0.7-0.7,0.9-1.3c0.3-0.5,0.5-1.2,0.8-1.9
		c0.9-2.8,1.8-5.6,2.9-8.4c1-2.8,2-5.4,2.9-7.9c0.9-2.5,1.6-4.8,2.2-7c0.6-2.2,0.9-4.1,0.9-5.8c0-3-0.7-5.2-2.2-6.6
		c-1.5-1.4-3.6-2.1-6.2-2.1c-1.3,0-2.6,0.2-4,0.7c-1.3,0.5-2.7,1.1-4,1.8c-1.3,0.7-2.6,1.6-3.9,2.5c-1.3,0.9-2.5,1.8-3.6,2.7
		l1.8-4.3C340.8,313.9,340.9,313.6,340.9,313.4z"/>
	<path class="st0" fill="#FFFFFF" d="M372.1,349.3c0.9,0.9,2,1.5,3.2,1.9c1.2,0.4,2.4,0.6,3.6,0.6c1,0,2-0.1,3-0.3c1-0.2,2-0.5,2.9-0.8
		c0.9-0.3,1.8-0.7,2.6-1.1c0.8-0.4,1.5-0.8,2.2-1.1c0.2-0.1,0.6-0.4,1.2-0.7c0.5-0.3,1.1-0.7,1.7-1c0.6-0.4,1.2-0.7,1.8-1.1
		c0.6-0.4,1-0.6,1.4-0.9c0.2,0.4,0.3,0.8,0.4,1.3c0,0.5,0.1,0.9,0.1,1.3c0,0.4,0,0.8,0.1,1.2c0,0.4,0.2,0.7,0.4,1
		c0.2,0.3,0.6,0.5,1,0.7c0.4,0.2,1.1,0.2,1.9,0.2c0.7,0,1.3-0.1,1.7-0.2c0.5-0.1,0.8-0.3,1.1-0.6c0.3-0.3,0.5-0.7,0.7-1.1
		c0.2-0.5,0.4-1,0.5-1.7c0.4-1.5,0.5-3.1,0.5-4.6c0-1.2,0.1-2.7,0.2-4.5c0.1-1.7,0.3-3.5,0.5-5.2c0.2-1.8,0.4-3.4,0.6-5
		c0.2-1.6,0.5-2.9,0.7-3.8l8.3-33.3c0-0.8-0.1-1.5-0.4-1.9c-0.2-0.5-0.6-0.9-1-1.2c-0.4-0.3-0.9-0.5-1.4-0.6
		c-0.5-0.1-1.1-0.1-1.6-0.1c-0.8,0-1.4,0.2-2,0.7c-0.6,0.5-1,1.1-1.3,1.9c-1.7,7.5-3.2,13.4-4.4,17.7c-1.2,4.2-1.9,6.8-2.2,7.8
		c-0.6-0.3-1.3-0.5-2-0.6c-0.7-0.2-1.5-0.2-2.4-0.2c-1.2,0-2.5,0.2-3.8,0.5c-1.3,0.3-2.6,0.8-3.8,1.4c-1.3,0.6-2.5,1.3-3.8,2.1
		c-1.2,0.8-2.4,1.6-3.5,2.5c-1.6,1.3-3.1,2.6-4.3,4c-1.2,1.4-2.3,2.8-3.2,4.3c-0.9,1.5-1.6,2.9-2.2,4.4c-0.6,1.5-1.1,3-1.4,4.5
		c-0.2,0.8-0.3,1.5-0.4,2.1c-0.1,0.6-0.1,1.3-0.1,1.9c0,1.8,0.3,3.3,0.8,4.6C370.5,347.4,371.2,348.5,372.1,349.3z M376.8,337.1
		c0.4-1.6,1-3.2,1.9-4.6c0.9-1.5,1.9-2.8,3-4c1.1-1.2,2.4-2.3,3.7-3.3c1.3-1,2.7-1.8,4.1-2.5c1.4-0.7,2.8-1.2,4.1-1.6
		c1.3-0.4,2.5-0.6,3.6-0.6c0.5,0,0.8,0.1,1.1,0.2c0.2,0.2,0.4,0.3,0.6,0.5c-0.1,1.1-0.3,2.1-0.4,3c-0.1,0.9-0.3,1.8-0.5,2.7
		c-0.2,0.9-0.4,1.8-0.6,2.7c-0.2,0.9-0.4,1.9-0.7,3c-0.3,1.2-0.8,2.3-1.3,3.3c-0.5,1-1.2,1.8-1.9,2.6c-0.7,0.8-1.5,1.5-2.4,2.2
		c-0.9,0.7-1.9,1.3-2.9,2c-0.4,0.2-0.9,0.5-1.4,0.8c-0.5,0.3-1.1,0.6-1.7,0.9c-0.6,0.3-1.3,0.5-1.9,0.7c-0.6,0.2-1.2,0.3-1.8,0.3
		c-1,0-1.8-0.2-2.4-0.5c-0.6-0.3-1.1-0.7-1.5-1.3c-0.4-0.5-0.6-1.1-0.8-1.8c-0.1-0.7-0.2-1.5-0.2-2.3
		C376.4,338.8,376.5,338,376.8,337.1z"/>
	<path class="st0" fill="#FFFFFF" d="M429.9,315.5c-0.3-0.2-0.7-0.3-1.2-0.4c-0.4-0.1-0.9-0.1-1.4-0.1c-0.6,0-1.2,0.1-1.7,0.3
		c-0.5,0.2-0.9,0.4-1.2,0.7c-0.3,0.3-0.5,0.5-0.7,0.8c-0.2,0.3-0.3,0.5-0.3,0.6c-0.6,2.3-1.2,4.8-1.9,7.3c-0.7,2.5-1.3,4.9-2,7.3
		c-0.7,2.4-1.3,4.6-1.8,6.8c-0.6,2.1-1.1,4-1.5,5.6l-1.2,4.9c-0.1,0.1-0.1,0.3-0.1,0.4c0,0.1,0,0.2,0,0.4c0,0.5,0.1,1,0.3,1.5
		c0.2,0.5,0.5,1,0.9,1.5c0.4,0.4,0.9,0.8,1.4,1.1c0.6,0.3,1.2,0.4,1.9,0.4c0.4,0,0.7-0.1,1-0.2c0.3-0.2,0.5-0.4,0.7-0.6
		c0.2-0.2,0.3-0.5,0.5-0.7c0.1-0.2,0.2-0.5,0.2-0.6c1.3-5,2.6-9.9,3.9-14.9c1.3-4.9,2.7-9.9,4-14.8l1.2-4.4c0-0.1,0-0.2,0-0.3
		s0-0.2,0-0.3c0-0.4-0.1-0.8-0.3-1.1C430.5,315.9,430.2,315.6,429.9,315.5z"/>
	<path class="st0" fill="#FFFFFF" d="M435.2,297.7c-0.2-0.3-0.5-0.6-0.8-0.9c-0.2-0.2-0.5-0.4-0.8-0.6c-0.3-0.2-0.6-0.3-0.8-0.3
		c-0.3,0-0.7,0.1-1.4,0.3c-0.6,0.2-1.2,0.4-1.6,0.7c-0.9,0.7-1.5,1.4-1.9,2.2c-0.4,0.8-0.6,1.5-0.7,2.1c-0.1,0.2-0.1,0.4-0.1,0.7
		c0,0.2-0.1,0.5-0.1,0.8c0,0.2,0,0.4,0.1,0.6c0,0.2,0.2,0.6,0.5,1c0.5,0.7,1,1.2,1.3,1.4c0.3,0.2,0.8,0.3,1.5,0.3
		c0.5,0,1.1-0.1,1.7-0.3c0.7-0.2,1.3-0.5,1.9-0.8c0.6-0.3,1.1-0.8,1.6-1.2c0.5-0.5,0.8-1,1-1.6c0.1-0.2,0.1-0.5,0.2-0.9
		c0.1-0.4,0.1-0.8,0.1-1.2c0-0.6-0.1-1.1-0.3-1.6C436.3,298,435.9,297.7,435.2,297.7z"/>
	<path class="st0" fill="#FFFFFF" d="M469.1,310.8c-1.3,0-2.6,0.2-4,0.7c-1.3,0.5-2.7,1.1-4,1.8c-1.3,0.7-2.6,1.6-3.9,2.5c-1.3,0.9-2.5,1.8-3.6,2.7
		l1.8-4.3c0.1-0.2,0.2-0.5,0.2-0.7c0.1-0.2,0.1-0.4,0.1-0.5c0-0.9-0.3-1.6-1-2c-0.7-0.5-1.5-0.7-2.6-0.7c-0.8,0-1.6,0.2-2.3,0.5
		c-0.7,0.3-1.1,0.7-1.3,1.2c-0.8,2.1-1.5,4-2.2,5.7c-0.7,1.7-1.3,3.4-1.9,5c-0.6,1.6-1.2,3.2-1.8,4.8c-0.6,1.6-1.2,3.3-1.8,5.1
		c-0.6,1.8-1.2,3.7-1.7,5.8c-0.6,2.1-1.2,4.5-1.8,7.1c-0.1,0.5-0.2,1-0.2,1.4c0,0.4,0,0.8,0,1.2c0,1.4,0.3,2.4,1,2.9
		c0.7,0.5,1.5,0.7,2.6,0.7c0.2,0,0.4,0,0.7-0.1c0.3,0,0.6-0.1,1-0.3c0.3-0.2,0.6-0.4,1-0.7c0.3-0.3,0.5-0.7,0.7-1.3
		c0.2-0.9,0.4-1.7,0.6-2.4c0.2-0.7,0.3-1.4,0.4-2c0.1-0.6,0.2-1.2,0.3-1.8c0.1-0.6,0.2-1.1,0.3-1.7c0.2-1.1,0.6-2.3,0.9-3.6
		c0.4-1.3,0.8-2.5,1.2-3.8c0.4-1.2,0.8-2.4,1.3-3.4c0.4-1,0.8-1.9,1.2-2.5c0.6-0.2,1.1-0.5,1.7-1c0.6-0.4,1.1-0.9,1.7-1.4
		c1.2-1.1,2.4-2.1,3.6-3c1.2-1,2.4-1.9,3.6-2.6c1.2-0.8,2.3-1.4,3.4-1.8c1.1-0.5,2.1-0.7,3.1-0.7c1,0,1.7,0.3,2.1,1
		c0.4,0.7,0.6,1.4,0.6,2.3c0,0.9-0.1,1.9-0.4,3c-0.2,1.1-0.6,2.2-1,3.4c-0.4,1.2-0.9,2.4-1.4,3.7c-0.5,1.3-1,2.5-1.6,3.8
		c-0.7,1.6-1.3,3.1-1.8,4.6c-0.6,1.5-1.1,3-1.5,4.3c-0.4,1.3-0.8,2.6-1,3.7c-0.2,1.1-0.4,2.1-0.4,2.8c0,0.9,0.2,1.5,0.6,1.9
		c0.4,0.4,1.2,0.6,2.2,0.6c0.7,0,1.3-0.1,1.8-0.2c0.5-0.1,0.9-0.4,1.3-0.7c0.4-0.3,0.7-0.7,0.9-1.3c0.3-0.5,0.5-1.2,0.8-1.9
		c0.9-2.8,1.8-5.6,2.9-8.4c1-2.8,2-5.4,2.9-7.9c0.9-2.5,1.6-4.8,2.2-7c0.6-2.2,0.9-4.1,0.9-5.8c0-3-0.7-5.2-2.2-6.6
		C473.8,311.5,471.7,310.8,469.1,310.8z"/>
	<path class="st0" fill="#FFFFFF" d="M518.9,339.9c-0.2-0.3-0.6-0.5-1.3-0.5c-0.7,0-1.5,0.2-2.4,0.7c-0.9,0.5-1.8,1-2.8,1.7
		c-0.8,0.5-1.6,1.1-2.6,1.6c-0.9,0.5-1.9,1-3,1.5c-1.1,0.5-2.2,0.8-3.4,1.1c-1.2,0.3-2.4,0.4-3.7,0.4c-2.2,0-4-0.4-5.3-1.3
		c-1.3-0.9-1.9-2.1-1.9-3.7c0-0.7,0.1-1.5,0.3-2.2c0.2-0.8,0.4-1.4,0.6-1.9c1.1-0.1,2.5-0.3,4-0.5c1.5-0.2,3.2-0.5,4.8-0.9
		c1.7-0.4,3.3-0.9,5-1.5c1.7-0.6,3.2-1.3,4.6-2.2c1.4-0.9,2.7-1.9,3.7-3c1.1-1.2,1.8-2.5,2.2-4.1c0.2-0.9,0.4-1.8,0.4-2.7
		c0-1.1-0.2-2.1-0.6-3.1c-0.4-1-1-1.8-1.7-2.5c-0.8-0.7-1.8-1.2-2.9-1.6c-1.2-0.4-2.6-0.6-4.2-0.6c-1.9,0-3.7,0.3-5.3,1
		c-1.7,0.6-3.2,1.5-4.7,2.5c-1.5,1-2.8,2.1-4,3.4c-1.2,1.2-2.3,2.5-3.2,3.7c-0.9,1.2-1.7,2.3-2.4,3.4c-0.6,1-1.1,1.9-1.4,2.5
		c-1.1,0.3-1.9,0.8-2.5,1.7c-0.6,0.8-1,1.8-1,3c0,0.6,0.2,1.1,0.5,1.4c0.3,0.3,0.7,0.5,1,0.6c-0.4,1.6-0.5,3.1-0.5,4.4
		c0,1.6,0.2,3,0.7,4.1c0.5,1.1,1,2.1,1.8,2.9c0.7,0.8,1.6,1.4,2.5,1.9c0.9,0.5,1.9,0.8,2.9,1.1c1,0.2,1.9,0.4,2.8,0.5
		c0.9,0.1,1.7,0.1,2.3,0.1c3.4,0,6.7-0.5,9.7-1.5c3-1,6-2.6,8.9-4.9c0.6-0.5,1.2-1.1,1.6-1.9c0.4-0.7,0.7-1.4,0.8-2.2
		c0-0.1,0-0.3,0.1-0.5c0-0.2,0-0.4,0-0.6C519.2,340.7,519.1,340.3,518.9,339.9z M497.8,327.6c0.8-1.1,1.7-2.1,2.8-3.1
		c1-1,2.1-1.7,3.3-2.4c1.2-0.6,2.4-1,3.6-1c0.8,0,1.4,0.2,2,0.6c0.6,0.4,0.8,0.9,0.8,1.7c0,0.1,0,0.3,0,0.4c0,0.1,0,0.2-0.1,0.4
		c-0.2,0.8-0.7,1.6-1.5,2.3c-0.8,0.7-1.8,1.3-3,1.9c-1.2,0.6-2.7,1-4.3,1.4c-1.7,0.4-3.5,0.6-5.5,0.8
		C496.3,329.7,497,328.7,497.8,327.6z"/>
	<path class="st0" fill="#FFFFFF" d="M202.2,398.9c-0.6-0.6-1.2-1-2-1.3c-0.8-0.3-1.7-0.5-2.7-0.5c-0.9,0-1.9,0.2-3.2,0.5c-1.2,0.3-2.5,0.7-3.7,1.2
		c-1.2,0.5-2.4,0.9-3.4,1.3c-1.1,0.4-1.8,0.8-2.3,1c-0.2,0-0.4,0-0.7,0.1c-0.3,0.1-0.6,0.2-0.9,0.3c-0.3,0.1-0.6,0.2-0.8,0.3
		c-0.2,0.1-0.4,0.1-0.5,0.1c-0.6,0.1-1.4,0.2-2.3,0.3c-0.9,0.1-1.8,0.3-2.7,0.7c-0.9,0.3-1.6,0.8-2.3,1.5c-0.6,0.7-1,1.6-1,2.7
		c0,0.6,0.1,1.1,0.2,1.6c0.2,0.5,0.4,1,0.7,1.4c0.3,0.4,0.7,0.7,1.2,0.9c0.5,0.2,1,0.4,1.6,0.4c0.2,0,0.4-0.1,0.7-0.2
		c0.3-0.1,0.6-0.3,0.9-0.4c0.3-0.1,0.6-0.3,0.9-0.4c0.3-0.1,0.6-0.2,0.7-0.2c0.3-0.1,0.8-0.3,1.6-0.5c0.8-0.3,1.7-0.6,2.8-1
		c1.1-0.4,2.2-0.8,3.4-1.2c1.2-0.4,2.3-0.8,3.4-1.2c1.1-0.4,2-0.7,2.9-1c0.9-0.3,1.5-0.5,1.8-0.5c0,0.1-0.1,0.2-0.1,0.3
		c0,0.1-0.1,0.2-0.1,0.4c-0.1,0.1-0.1,0.3-0.2,0.4c-1.3,2.8-3,5.5-5,8.2c-2,2.6-4.5,4.9-7.4,6.8c-0.9,0.6-1.9,1.2-3,1.9
		c-1.1,0.7-2.3,1.3-3.4,1.9c-1.2,0.6-2.3,1.1-3.5,1.5c-1.2,0.4-2.3,0.6-3.3,0.6c-1,0-2-0.2-3-0.6c-1-0.4-1.9-0.9-2.8-1.4h0
		c-1.6-1.3-2.9-2.6-3.7-4c-0.9-1.3-1.3-3-1.3-4.8c0-2.3,0.5-4.7,1.5-7.2c1-2.5,2.4-5,4-7.4c1.7-2.4,3.6-4.8,5.8-7
		c2.2-2.3,4.5-4.3,6.9-6.2c2.4-1.8,4.8-3.4,7.3-4.7c2.4-1.3,4.7-2.2,6.9-2.6h1.1c0.7,0,1.2,0.2,1.7,0.6c0.5,0.4,1,0.9,1.5,1.3
		c0.5,0.5,1,0.9,1.6,1.3c0.6,0.4,1.3,0.6,2.1,0.6c0.3,0,0.5,0,0.8-0.1c0.3-0.1,0.4-0.3,0.6-0.6l-0.1,0.1c0.2-0.3,0.5-0.7,0.6-1.3
		c0.2-0.6,0.3-0.9,0.3-1.2c0.1-0.6,0.2-1.1,0.2-1.5c0-1-0.3-2-0.8-2.9c-0.6-0.9-1.3-1.6-2.2-2.2c-0.9-0.6-1.9-1.1-3-1.4
		c-1.1-0.3-2.2-0.5-3.4-0.5c-1.4,0-2.9,0.2-4.3,0.6c-1.5,0.4-2.9,1-4.4,1.6c-1.4,0.7-2.8,1.4-4.2,2.2c-1.4,0.8-2.6,1.6-3.8,2.4
		c-2,1.3-3.9,2.9-5.9,4.6c-2,1.7-3.9,3.6-5.7,5.7c-1.8,2-3.5,4.2-5.1,6.4c-1.6,2.2-2.9,4.5-4.1,6.7c-1.2,2.3-2.1,4.5-2.7,6.7
		c-0.7,2.2-1,4.4-1,6.4c0,1.9,0.3,3.7,0.8,5.3c0.5,1.6,1.3,3.1,2.2,4.4c0.9,1.3,2.1,2.5,3.4,3.5c1.3,1,2.8,1.9,4.3,2.6
		c0.3,0.1,0.6,0.3,0.9,0.4c0.3,0.1,0.8,0.3,1.3,0.4c0.5,0.1,1.1,0.2,1.9,0.2c0.7,0.1,1.7,0.1,2.7,0.1c0.5,0,1.1-0.1,1.8-0.2
		c0.7-0.1,1.4-0.3,2.2-0.4c0.7-0.2,1.4-0.4,2.1-0.6c0.7-0.2,1.3-0.4,1.7-0.6l0,0c2.9-1.1,5.8-2.4,8.5-4.1c2.8-1.7,5.3-3.6,7.6-5.7
		c2.3-2.2,4.3-4.6,6-7.3s3-5.5,3.8-8.6c0.1-0.6,0.2-1.1,0.3-1.5c0.1-0.4,0.1-0.8,0.1-1.2c0-0.9-0.1-1.7-0.4-2.5
		C203.1,400.1,202.7,399.5,202.2,398.9z"/>
	<path class="st0" fill="#FFFFFF" d="M246.4,393.2c-0.4-0.4-0.9-0.7-1.4-0.8c-0.6-0.2-1.2-0.2-1.9-0.2c-1.1,0-1.8,0.2-2.3,0.6
		c-0.5,0.4-0.8,1.1-1,2.2l-1.1,5.5c-0.2,0.8-0.4,1.9-0.7,3.2c-0.3,1.3-0.7,2.8-1.1,4.3c-0.4,1.5-0.9,3-1.5,4.5
		c-0.6,1.5-1.2,2.8-1.8,4l-1.1,1.9c-0.6,0.9-1.3,2-2.1,3.1c-0.9,1.2-1.8,2.3-2.9,3.3c-1.1,1-2.2,1.9-3.4,2.6
		c-1.2,0.7-2.4,1.1-3.5,1.1c-0.7,0-1.2-0.2-1.7-0.6c-0.5-0.4-0.9-0.9-1.2-1.6c-0.3-0.6-0.5-1.3-0.7-2c-0.2-0.7-0.2-1.4-0.2-1.9
		c0-0.6,0.1-1.4,0.4-2.6c0.3-1.1,0.7-2.6,1.2-4.4c0.5-1.8,1.2-4,2-6.5c0.8-2.6,1.6-5.6,2.6-9c0.2-0.5,0.2-1.1,0.2-1.7
		c0-0.8-0.2-1.4-0.5-2c-0.3-0.6-0.8-0.8-1.6-0.9c-0.4-0.1-0.8-0.2-1.3-0.2c-0.4-0.1-0.8-0.1-1.2-0.2c-0.4-0.1-0.8-0.1-1.1-0.1
		c-0.1,0-0.3,0-0.5,0.1c-0.2,0.1-0.4,0.2-0.6,0.4c-0.2,0.2-0.5,0.4-0.7,0.8c-0.2,0.3-0.4,0.7-0.5,1.1c-0.2,0.6-0.4,1.4-0.6,2.2
		c-0.2,0.8-0.5,1.9-0.8,3c-0.3,1.2-0.7,2.6-1.1,4.1c-0.4,1.6-0.9,3.4-1.4,5.5c-0.2,0.7-0.4,1.4-0.6,2.3c-0.3,0.8-0.5,1.7-0.7,2.7
		c-0.2,1-0.4,1.9-0.6,3c-0.2,1-0.2,2-0.2,3.1c0,1.8,0.3,3.6,1,5.4c0.6,1.8,1.7,3.4,3.2,4.8c0.3,0.3,0.8,0.6,1.3,1
		c0.6,0.3,1.1,0.7,1.7,0.9c0.6,0.3,1.2,0.5,1.8,0.7c0.6,0.2,1,0.3,1.4,0.3c1.8,0,3.5-0.4,5-1.3c1.5-0.8,3-1.9,4.3-3.1
		c1.3-1.2,2.5-2.6,3.6-4c1.1-1.4,2.1-2.7,3-3.9l0.4-0.1l0.5,7.8c0,0.4,0.1,0.8,0.2,1.1c0.1,0.4,0.3,0.7,0.5,1
		c0.3,0.3,0.6,0.5,1.1,0.7c0.5,0.2,1.1,0.3,1.9,0.3c1.2,0,2-0.3,2.5-0.8c0.5-0.5,0.9-1.3,1.2-2.4c0.1-0.3,0.1-0.7,0.2-1.2
		c0-0.6,0.1-1.2,0.1-1.9c0-1.6,0-3.1-0.1-4.5c-0.1-1.4-0.1-2.8-0.1-4.2c0-0.8,0.1-1.8,0.2-2.8c0.1-1,0.3-2.1,0.5-3.3
		c0.2-1.1,0.4-2.3,0.7-3.4c0.3-1.1,0.5-2.2,0.8-3.3c0.4-1.7,0.8-3.5,1.2-5.2c0.4-1.7,0.6-3.2,0.6-4.4c0-1-0.1-1.9-0.3-2.5
		C247.1,394.1,246.8,393.6,246.4,393.2z"/>
	<path class="st0" fill="#FFFFFF" d="M293.5,393.2c-0.4-0.4-0.9-0.7-1.4-0.8c-0.6-0.2-1.2-0.2-1.9-0.2c-1.1,0-1.8,0.2-2.3,0.6
		c-0.5,0.4-0.8,1.1-1,2.2l-1.1,5.5c-0.2,0.8-0.4,1.9-0.7,3.2c-0.3,1.3-0.7,2.8-1.1,4.3c-0.4,1.5-0.9,3-1.5,4.5
		c-0.6,1.5-1.2,2.8-1.8,4l-1.1,1.9c-0.6,0.9-1.3,2-2.1,3.1c-0.9,1.2-1.8,2.3-2.9,3.3c-1.1,1-2.2,1.9-3.4,2.6
		c-1.2,0.7-2.4,1.1-3.5,1.1c-0.7,0-1.2-0.2-1.7-0.6c-0.5-0.4-0.9-0.9-1.2-1.6c-0.3-0.6-0.5-1.3-0.7-2c-0.2-0.7-0.2-1.4-0.2-1.9
		c0-0.6,0.1-1.4,0.4-2.6c0.3-1.1,0.7-2.6,1.2-4.4c0.5-1.8,1.2-4,2-6.5c0.8-2.6,1.6-5.6,2.6-9c0.2-0.5,0.2-1.1,0.2-1.7
		c0-0.8-0.2-1.4-0.5-2c-0.3-0.6-0.8-0.8-1.6-0.9c-0.4-0.1-0.8-0.2-1.3-0.2c-0.4-0.1-0.8-0.1-1.2-0.2c-0.4-0.1-0.8-0.1-1.1-0.1
		c-0.1,0-0.3,0-0.5,0.1c-0.2,0.1-0.4,0.2-0.6,0.4c-0.2,0.2-0.5,0.4-0.7,0.8c-0.2,0.3-0.4,0.7-0.5,1.1c-0.2,0.6-0.4,1.4-0.6,2.2
		c-0.2,0.8-0.5,1.9-0.8,3c-0.3,1.2-0.7,2.6-1.1,4.1c-0.4,1.6-0.9,3.4-1.4,5.5c-0.2,0.7-0.4,1.4-0.6,2.3c-0.3,0.8-0.5,1.7-0.7,2.7
		c-0.2,1-0.4,1.9-0.6,3c-0.2,1-0.2,2-0.2,3.1c0,1.8,0.3,3.6,1,5.4c0.6,1.8,1.7,3.4,3.2,4.8c0.3,0.3,0.8,0.6,1.3,1
		c0.6,0.3,1.1,0.7,1.7,0.9c0.6,0.3,1.2,0.5,1.8,0.7c0.6,0.2,1,0.3,1.4,0.3c1.8,0,3.5-0.4,5-1.3c1.5-0.8,3-1.9,4.3-3.1
		c1.3-1.2,2.5-2.6,3.6-4c1.1-1.4,2.1-2.7,3-3.9l0.4-0.1l0.5,7.8c0,0.4,0.1,0.8,0.2,1.1c0.1,0.4,0.3,0.7,0.5,1
		c0.3,0.3,0.6,0.5,1.1,0.7c0.5,0.2,1.1,0.3,1.9,0.3c1.2,0,2-0.3,2.5-0.8c0.5-0.5,0.9-1.3,1.2-2.4c0.1-0.3,0.1-0.7,0.2-1.2
		c0-0.6,0.1-1.2,0.1-1.9c0-1.6,0-3.1-0.1-4.5c-0.1-1.4-0.1-2.8-0.1-4.2c0-0.8,0.1-1.8,0.2-2.8c0.1-1,0.3-2.1,0.5-3.3
		c0.2-1.1,0.4-2.3,0.7-3.4c0.3-1.1,0.5-2.2,0.8-3.3c0.4-1.7,0.8-3.5,1.2-5.2c0.4-1.7,0.6-3.2,0.6-4.4c0-1-0.1-1.9-0.3-2.5
		C294.2,394.1,293.9,393.6,293.5,393.2z"/>
	<path class="st0" fill="#FFFFFF" d="M315.8,397.9c-0.3-0.2-0.7-0.3-1.2-0.4c-0.4-0.1-0.9-0.1-1.4-0.1c-0.6,0-1.2,0.1-1.7,0.3
		c-0.5,0.2-0.9,0.4-1.2,0.7c-0.3,0.3-0.5,0.5-0.7,0.8c-0.2,0.3-0.3,0.5-0.3,0.6c-0.6,2.3-1.2,4.8-1.9,7.3c-0.7,2.5-1.3,4.9-2,7.3
		c-0.7,2.4-1.3,4.6-1.8,6.8c-0.6,2.1-1.1,4-1.5,5.6l-1.2,4.9c-0.1,0.1-0.1,0.3-0.1,0.4c0,0.1,0,0.2,0,0.4c0,0.5,0.1,1,0.3,1.5
		c0.2,0.5,0.5,1,0.9,1.5c0.4,0.4,0.9,0.8,1.4,1.1c0.6,0.3,1.2,0.4,1.9,0.4c0.4,0,0.7-0.1,1-0.2c0.3-0.2,0.5-0.4,0.7-0.6
		c0.2-0.2,0.3-0.5,0.5-0.7c0.1-0.2,0.2-0.5,0.2-0.6c1.3-5,2.6-9.9,3.9-14.9c1.3-4.9,2.7-9.9,4-14.8l1.2-4.4c0-0.1,0-0.2,0-0.3
		c0-0.1,0-0.2,0-0.3c0-0.4-0.1-0.8-0.3-1.1C316.4,398.4,316.1,398.1,315.8,397.9z"/>
	<path class="st0" fill="#FFFFFF" d="M321.1,380.1c-0.2-0.3-0.5-0.6-0.8-0.9c-0.2-0.2-0.5-0.4-0.8-0.6c-0.3-0.2-0.6-0.3-0.8-0.3s-0.7,0.1-1.4,0.3
		c-0.6,0.2-1.2,0.4-1.6,0.7c-0.9,0.7-1.5,1.4-1.9,2.2c-0.4,0.8-0.6,1.5-0.7,2.1c-0.1,0.2-0.1,0.4-0.1,0.7c0,0.2-0.1,0.5-0.1,0.8
		c0,0.2,0,0.4,0.1,0.6c0,0.2,0.2,0.6,0.5,1c0.5,0.7,1,1.2,1.3,1.4c0.3,0.2,0.8,0.3,1.5,0.3c0.5,0,1.1-0.1,1.7-0.3
		c0.7-0.2,1.3-0.5,1.9-0.8c0.6-0.3,1.1-0.8,1.6-1.2c0.5-0.5,0.8-1,1-1.6c0.1-0.2,0.1-0.5,0.2-0.9c0.1-0.4,0.1-0.8,0.1-1.2
		c0-0.6-0.1-1.1-0.3-1.6C322.3,380.4,321.8,380.2,321.1,380.1z"/>
	<path class="st0" fill="#FFFFFF" d="M355,393.2c-1.3,0-2.6,0.2-4,0.7c-1.3,0.5-2.7,1.1-4,1.8c-1.3,0.7-2.6,1.6-3.9,2.5c-1.3,0.9-2.5,1.8-3.6,2.7
		l1.8-4.3c0.1-0.2,0.2-0.5,0.2-0.7c0.1-0.2,0.1-0.4,0.1-0.5c0-0.9-0.3-1.6-1-2c-0.7-0.5-1.5-0.7-2.6-0.7c-0.8,0-1.6,0.2-2.3,0.5
		c-0.7,0.3-1.1,0.7-1.3,1.2c-0.8,2.1-1.5,4-2.2,5.7c-0.7,1.7-1.3,3.4-1.9,5c-0.6,1.6-1.2,3.2-1.8,4.8c-0.6,1.6-1.2,3.3-1.8,5.1
		c-0.6,1.8-1.2,3.7-1.7,5.8c-0.6,2.1-1.2,4.5-1.8,7.1c-0.1,0.5-0.2,1-0.2,1.4c0,0.4,0,0.8,0,1.2c0,1.4,0.3,2.4,1,2.9
		c0.7,0.5,1.5,0.7,2.6,0.7c0.2,0,0.4,0,0.7-0.1c0.3,0,0.6-0.1,1-0.3c0.3-0.2,0.6-0.4,1-0.7c0.3-0.3,0.5-0.7,0.7-1.3
		c0.2-0.9,0.4-1.7,0.6-2.4c0.2-0.7,0.3-1.4,0.4-2c0.1-0.6,0.2-1.2,0.3-1.8c0.1-0.6,0.2-1.1,0.3-1.7c0.2-1.1,0.6-2.3,0.9-3.6
		c0.4-1.3,0.8-2.5,1.2-3.8c0.4-1.2,0.8-2.4,1.3-3.4c0.4-1,0.8-1.9,1.2-2.5c0.6-0.2,1.1-0.5,1.7-1c0.6-0.4,1.1-0.9,1.7-1.4
		c1.2-1,2.4-2.1,3.6-3c1.2-1,2.4-1.9,3.6-2.6c1.2-0.8,2.3-1.4,3.4-1.8c1.1-0.5,2.1-0.7,3.1-0.7c1,0,1.7,0.3,2.1,1
		c0.4,0.7,0.6,1.4,0.6,2.3c0,0.9-0.1,1.9-0.4,3c-0.2,1.1-0.6,2.2-1,3.4c-0.4,1.2-0.9,2.4-1.4,3.7c-0.5,1.3-1,2.5-1.6,3.8
		c-0.7,1.6-1.3,3.1-1.8,4.6c-0.6,1.5-1.1,3-1.5,4.3c-0.4,1.3-0.8,2.6-1,3.7c-0.2,1.1-0.4,2.1-0.4,2.8c0,0.9,0.2,1.5,0.6,1.9
		c0.4,0.4,1.2,0.6,2.2,0.6c0.7,0,1.3-0.1,1.8-0.2c0.5-0.1,0.9-0.4,1.3-0.7c0.4-0.3,0.7-0.7,0.9-1.3c0.3-0.5,0.5-1.2,0.8-1.9
		c0.9-2.8,1.8-5.6,2.9-8.4c1-2.8,2-5.4,2.9-7.9c0.9-2.5,1.6-4.8,2.2-7c0.6-2.2,0.9-4.1,0.9-5.8c0-3-0.7-5.2-2.2-6.6
		C359.7,394,357.7,393.2,355,393.2z"/>
	<path class="st0" fill="#FFFFFF" d="M389.5,380.1c-0.2-0.3-0.5-0.6-0.8-0.9c-0.2-0.2-0.5-0.4-0.8-0.6c-0.3-0.2-0.6-0.3-0.8-0.3
		c-0.3,0-0.7,0.1-1.4,0.3c-0.6,0.2-1.2,0.4-1.6,0.7c-0.9,0.7-1.5,1.4-1.9,2.2c-0.4,0.8-0.6,1.5-0.7,2.1c-0.1,0.2-0.1,0.4-0.1,0.7
		c0,0.2-0.1,0.5-0.1,0.8c0,0.2,0,0.4,0.1,0.6c0,0.2,0.2,0.6,0.5,1c0.5,0.7,1,1.2,1.3,1.4c0.3,0.2,0.8,0.3,1.5,0.3
		c0.5,0,1.1-0.1,1.7-0.3c0.7-0.2,1.3-0.5,1.9-0.8c0.6-0.3,1.1-0.8,1.6-1.2c0.5-0.5,0.8-1,1-1.6c0.1-0.2,0.1-0.5,0.2-0.9
		c0.1-0.4,0.1-0.8,0.1-1.2c0-0.6-0.1-1.1-0.3-1.6C390.6,380.4,390.2,380.2,389.5,380.1z"/>
	<path class="st0" fill="#FFFFFF" d="M384.2,397.9c-0.3-0.2-0.7-0.3-1.2-0.4c-0.4-0.1-0.9-0.1-1.4-0.1c-0.6,0-1.2,0.1-1.7,0.3
		c-0.5,0.2-0.9,0.4-1.2,0.7c-0.3,0.3-0.5,0.5-0.7,0.8c-0.2,0.3-0.3,0.5-0.3,0.6c-0.6,2.3-1.2,4.8-1.9,7.3c-0.7,2.5-1.3,4.9-2,7.3
		c-0.7,2.4-1.3,4.6-1.8,6.8c-0.6,2.1-1.1,4-1.5,5.6l-1.2,4.9c-0.1,0.1-0.1,0.3-0.1,0.4c0,0.1,0,0.2,0,0.4c0,0.5,0.1,1,0.3,1.5
		c0.2,0.5,0.5,1,0.9,1.5c0.4,0.4,0.9,0.8,1.4,1.1c0.6,0.3,1.2,0.4,1.9,0.4c0.4,0,0.7-0.1,1-0.2c0.3-0.2,0.5-0.4,0.7-0.6
		c0.2-0.2,0.3-0.5,0.5-0.7c0.1-0.2,0.2-0.5,0.2-0.6c1.3-5,2.6-9.9,3.9-14.9c1.3-4.9,2.7-9.9,4-14.8l1.2-4.4c0-0.1,0-0.2,0-0.3
		c0-0.1,0-0.2,0-0.3c0-0.4-0.1-0.8-0.3-1.1C384.8,398.4,384.5,398.1,384.2,397.9z"/>
	<path class="st0" fill="#FFFFFF" d="M419.1,393.9c-0.6-0.4-1.2-0.7-2-0.8c-0.8-0.2-1.6-0.2-2.6-0.2c-0.9,0-1.8,0.1-2.6,0.3
		c-0.9,0.2-1.6,0.5-2.4,0.9c-2.2,1.2-4.3,2.7-6.1,4.5c-1.9,1.8-3.5,3.8-5,6c-1.5,2.2-2.7,4.4-3.8,6.7c-1,2.3-1.8,4.5-2.3,6.7
		c-0.3,1.2-0.5,2.3-0.7,3.3c-0.2,1.1-0.2,2.1-0.2,3c0,2.2,0.5,4.2,1.5,5.8c1,1.6,2.7,2.9,4.9,3.9c0.4,0.2,0.8,0.3,1.4,0.4
		c0.5,0.1,1,0.1,1.4,0.1c1.2,0,2.7-0.2,4.4-0.7c1.8-0.5,3.5-1.1,5.2-2.1c0.9-0.4,1.8-0.9,2.8-1.5c0.9-0.5,1.8-1.1,2.6-1.8
		c0.8-0.7,1.6-1.4,2.2-2.3c0.7-0.9,1.2-1.8,1.6-2.9c0.2-0.4,0.2-0.8,0.2-1.2c0-0.5-0.2-0.8-0.5-1.1c-0.4-0.2-0.7-0.3-1.2-0.3
		c-0.3,0-0.7,0.1-1.1,0.3c-0.4,0.2-0.8,0.4-1.3,0.7c-0.5,0.3-1,0.6-1.5,1c-0.5,0.4-1.1,0.7-1.6,1c-0.8,0.5-1.7,1-2.5,1.6
		c-0.9,0.5-1.8,1-2.7,1.3c-0.9,0.4-1.8,0.7-2.8,1c-1,0.2-1.9,0.4-2.9,0.4c-0.6,0-1.1-0.1-1.5-0.3c-0.4-0.2-0.7-0.5-1-0.9
		c-0.2-0.4-0.4-0.8-0.5-1.3c-0.1-0.5-0.1-1-0.1-1.6c0-0.8,0.1-1.6,0.2-2.5c0.2-0.8,0.3-1.6,0.5-2.3c0.2-0.9,0.6-1.9,1-3
		s0.9-2.2,1.5-3.3c0.6-1.1,1.2-2.3,1.9-3.4c0.7-1.1,1.5-2.2,2.3-3.2c0.8-1,1.8-1.9,2.7-2.7c1-0.8,2-1.5,3.1-2
		c0.3,0.1,0.6,0.2,0.8,0.4c0.2,0.1,0.5,0.3,0.7,0.4c0.5,0.3,1,0.5,1.5,0.7c0.5,0.2,1.1,0.3,1.7,0.3c0.8,0,1.5-0.2,2-0.5
		c0.6-0.3,1.1-0.8,1.5-1.3c0.4-0.5,0.7-1.1,0.9-1.8c0.2-0.7,0.3-1.3,0.3-2c0-0.9-0.2-1.6-0.5-2.2
		C420.1,394.8,419.6,394.3,419.1,393.9z"/>
</g>
<path class="st2" fill="#139BBE" d="M75.9,279.1c0,0-20.3,11.2-9.1,28.1c11.2,16.8,49.9,35.7,68.6,16.9c9.3-11.7-2.1-27.8-2.1-27.8
	c-4.3,11.7-5.2,11.5-6.8,17.5c-9.7,12.1-51.5-20.6-51.5-20.6L75.9,279.1z"/>
</svg>
