<svg xmlns="http://www.w3.org/2000/svg" width="366.7" height="56.85" viewBox="0 0 366.7 56.85">
  <g id="Groupe_205" data-name="Groupe 205" transform="translate(-211.2 -191.5)">
    <path id="Tracé_36850" data-name="Tracé 36850" d="M1.2-28.25h9.3V0h8.55V-28.25h9.3V-35.1H1.2ZM33.45,0H42V-15.15c0-3.8,2.1-5.9,5.35-5.9s5.35,2.1,5.35,5.9V0h8.5V-16.3c0-7.5-4.25-11.9-10.6-11.9A10.289,10.289,0,0,0,42-24.15V-37H33.45Zm61.8-13.95c0-8.85-6.3-14.35-14.5-14.35-8.15,0-14.5,5.5-14.5,14.35S72.45.4,80.65.4,95.25-5.1,95.25-13.95Zm-20.3,0c0-4.75,2.7-6.95,5.8-6.95,3,0,5.8,2.2,5.8,6.95,0,4.7-2.85,6.95-5.9,6.95C77.55-7,74.95-9.25,74.95-13.95ZM139.05,0h8.5V-16.3c0-7.5-4.45-11.9-11.35-11.9a11.222,11.222,0,0,0-9.4,5.2,10.422,10.422,0,0,0-9.5-5.2,9.843,9.843,0,0,0-8.15,3.8v-3.5H100.6V0h8.55V-15.15c0-3.65,2.1-5.65,5.35-5.65s5.35,2,5.35,5.65V0h8.5V-15.15c0-3.65,2.1-5.65,5.35-5.65s5.35,2,5.35,5.65Zm13.6-14C152.65-5.2,158.1.4,164.9.4a9.865,9.865,0,0,0,8.65-4.35V0h8.55V-27.9h-8.55v3.95c-1.5-2.45-4.45-4.35-8.6-4.35C158.1-28.3,152.65-22.8,152.65-14Zm20.9.05c0,4.45-2.85,6.9-6.1,6.9-3.2,0-6.1-2.5-6.1-6.95s2.9-6.85,6.1-6.85C170.7-20.85,173.55-18.4,173.55-13.95Zm38.2,5.85c-.15-10.4-15.25-7.25-15.25-11.7,0-1.35,1.1-2.15,3.1-2.15,2.4,0,3.85,1.25,4.1,3.15h7.9c-.55-5.5-4.55-9.5-11.75-9.5-7.3,0-11.35,3.9-11.35,8.65,0,10.25,15.2,7,15.2,11.5,0,1.25-1.15,2.25-3.35,2.25-2.35,0-4.1-1.3-4.3-3.25H187.6C188-3.75,193,.4,200.45.4,207.45.4,211.75-3.25,211.75-8.1ZM215.2,9.35h8.25l13.4-56.85H228.6ZM260.6-10.7c0,2.5-1.65,3.8-4.5,3.8h-6.3v-7.75H256C258.85-14.65,260.6-13.2,260.6-10.7Zm-.85-13.85c0,2.4-1.55,3.65-4.35,3.65h-5.6v-7.35h5.6C258.2-28.25,259.75-26.95,259.75-24.55Zm9.5,15A8.511,8.511,0,0,0,262.5-18a7.963,7.963,0,0,0,5.95-8c0-5.55-4.25-9.1-11.4-9.1h-15.8V0H257.6C265,0,269.25-3.75,269.25-9.55Zm38.25-4.4C307.5-5.1,313.3.4,321.5.4c7,0,11.95-4.05,13.4-10.5h-9.1a4.341,4.341,0,0,1-4.45,3.2c-3.05,0-5.15-2.4-5.15-7.05S318.3-21,321.35-21a4.408,4.408,0,0,1,4.45,3.2h9.1c-1.45-6.65-6.4-10.5-13.4-10.5C313.3-28.3,307.5-22.75,307.5-13.95ZM340.25,0h8.55V-11.7L357.3,0h10.6L356.2-13.9l11.6-14H357.25L348.8-16.55V-37h-8.55Z" transform="translate(210 239)" fill="#fff"/>
    <g id="Groupe_204" data-name="Groupe 204" transform="translate(55.5 97.5)">
      <line id="Ligne_32" data-name="Ligne 32" x2="28.5" transform="translate(429.5 118.5)" fill="none" stroke="#DF3601" stroke-width="6"/>
      <line id="Ligne_33" data-name="Ligne 33" x2="28.5" transform="translate(429.5 128.25)" fill="none" stroke="#DF3601" stroke-width="6"/>
      <line id="Ligne_34" data-name="Ligne 34" x2="28.5" transform="translate(429.5 138)" fill="none" stroke="#DF3601" stroke-width="6"/>
    </g>
  </g>
</svg>
